Application.hpp:74:18:virtual void touchgfx::Application::appSwitchScreen(uint8_t)	0	static
Application.hpp:86:18:virtual void touchgfx::Application::requestRedraw(touchgfx::Rect&)	0	static
Drawable.hpp:132:23:virtual touchgfx::Drawable* touchgfx::Drawable::getFirstChild()	0	static
Drawable.hpp:298:18:virtual void touchgfx::Drawable::setX(int16_t)	0	static
Drawable.hpp:310:18:virtual void touchgfx::Drawable::setY(int16_t)	0	static
Drawable.hpp:339:18:virtual void touchgfx::Drawable::setWidth(int16_t)	0	static
Drawable.hpp:351:18:virtual void touchgfx::Drawable::setHeight(int16_t)	0	static
Drawable.hpp:361:18:virtual void touchgfx::Drawable::childGeometryChanged()	0	static
Drawable.hpp:372:18:virtual void touchgfx::Drawable::handleClickEvent(const touchgfx::ClickEvent&)	0	static
Drawable.hpp:383:18:virtual void touchgfx::Drawable::handleGestureEvent(const touchgfx::GestureEvent&)	0	static
Drawable.hpp:471:18:virtual void touchgfx::Drawable::handleDragEvent(const touchgfx::DragEvent&)	0	static
Drawable.hpp:481:18:virtual void touchgfx::Drawable::handleTickEvent()	0	static
Drawable.hpp:568:18:virtual void touchgfx::Drawable::moveTo(int16_t, int16_t)	4	static
Drawable.hpp:683:18:virtual void touchgfx::Drawable::setupDrawChain(const touchgfx::Rect&, touchgfx::Drawable**)	0	static
Transition.hpp:71:18:virtual void touchgfx::Transition::tearDown()	0	static
Transition.hpp:79:18:virtual void touchgfx::Transition::init()	0	static
Transition.hpp:99:18:virtual void touchgfx::Transition::setScreenContainer(touchgfx::Container&)	0	static
MVPApplication.hpp:43:7:touchgfx::MVPApplication::~MVPApplication()	0	static
FrontendApplicationBase.hpp:16:13:FrontendApplicationBase::~FrontendApplicationBase()	0	static
NoTransition.hpp:35:18:virtual void touchgfx::NoTransition::handleTickEvent()	0	static
Widget.hpp:47:18:virtual void touchgfx::Widget::getLastChild(int16_t, int16_t, touchgfx::Drawable**)	0	static
Callback.hpp:357:8:touchgfx::Callback<touchgfx::CoverTransition<touchgfx::EAST>, touchgfx::Drawable&, void, void>::~Callback()	0	static
CoverTransition.hpp:236:11:touchgfx::CoverTransition<touchgfx::EAST>::FullSolidRect::~FullSolidRect()	0	static
CoverTransition.hpp:216:18:void touchgfx::CoverTransition<templateDirection>::tickMoveDrawable(touchgfx::Drawable&) [with touchgfx::Direction templateDirection = touchgfx::EAST]	4	static
CoverTransition.hpp:37:7:touchgfx::CoverTransition<touchgfx::EAST>::~CoverTransition()	0	static
NoTransition.hpp:31:7:touchgfx::NoTransition::~NoTransition()	0	static
Callback.hpp:424:8:touchgfx::Callback<FrontendApplicationBase>::~Callback()	0	static
CoverTransition.hpp:169:18:void touchgfx::CoverTransition<templateDirection>::tearDown() [with touchgfx::Direction templateDirection = touchgfx::EAST]	0	static
CoverTransition.hpp:174:18:void touchgfx::CoverTransition<templateDirection>::init() [with touchgfx::Direction templateDirection = touchgfx::EAST]	24	static
CoverTransition.hpp:189:18:void touchgfx::CoverTransition<templateDirection>::initMoveDrawable(touchgfx::Drawable&) [with touchgfx::Direction templateDirection = touchgfx::EAST]	0	static
CoverTransition.hpp:244:22:void touchgfx::CoverTransition<templateDirection>::FullSolidRect::draw(const touchgfx::Rect&) const [with touchgfx::Direction templateDirection = touchgfx::EAST]	0	static
CoverTransition.hpp:239:22:touchgfx::Rect touchgfx::CoverTransition<templateDirection>::FullSolidRect::getSolidRect() const [with touchgfx::Direction templateDirection = touchgfx::EAST]	8	static
Callback.hpp:386:18:void touchgfx::Callback<dest_type, T1, void, void>::execute(T1) [with dest_type = touchgfx::CoverTransition<touchgfx::EAST>; T1 = touchgfx::Drawable&]	8	static
Callback.hpp:396:18:bool touchgfx::Callback<dest_type, T1, void, void>::isValid() const [with dest_type = touchgfx::CoverTransition<touchgfx::EAST>; T1 = touchgfx::Drawable&]	0	static
Callback.hpp:449:18:void touchgfx::Callback<dest_type, void, void, void>::execute() [with dest_type = FrontendApplicationBase]	4	static
Callback.hpp:459:18:bool touchgfx::Callback<dest_type, void, void, void>::isValid() const [with dest_type = FrontendApplicationBase]	0	static
NoTransition.hpp:31:7:virtual touchgfx::NoTransition::~NoTransition()	8	static
Callback.hpp:424:8:virtual touchgfx::Callback<FrontendApplicationBase>::~Callback()	8	static
MVPApplication.hpp:43:7:virtual touchgfx::MVPApplication::~MVPApplication()	8	static
FrontendApplicationBase.hpp:16:13:virtual FrontendApplicationBase::~FrontendApplicationBase()	8	static
CoverTransition.hpp:236:11:virtual touchgfx::CoverTransition<touchgfx::EAST>::FullSolidRect::~FullSolidRect()	8	static
CoverTransition.hpp:37:7:virtual touchgfx::CoverTransition<touchgfx::EAST>::~CoverTransition()	8	static
Callback.hpp:357:8:virtual touchgfx::Callback<touchgfx::CoverTransition<touchgfx::EAST>, touchgfx::Drawable&, void, void>::~Callback()	8	static
Transition.hpp:88:18:virtual void touchgfx::Transition::invalidate()	8	static
MVPApplication.hpp:59:18:virtual void touchgfx::MVPApplication::handlePendingScreenTransition()	8	static
HAL.hpp:246:17:static touchgfx::LCD& touchgfx::HAL::lcd()	0	static
CoverTransition.hpp:83:18:void touchgfx::CoverTransition<templateDirection>::handleTickEvent() [with touchgfx::Direction templateDirection = touchgfx::EAST]	56	static
FrontendApplicationBase.cpp:25:1:FrontendApplicationBase::FrontendApplicationBase(Model&, FrontendHeap&)	24	static
FrontendApplicationBase.cpp:42:6:void FrontendApplicationBase::gotoMenuScreenNoTransition()	0	static
FrontendApplicationBase.cpp:53:6:void FrontendApplicationBase::gotoMenuScreenCoverTransitionEast()	0	static
FrontendApplicationBase.cpp:66:6:void FrontendApplicationBase::gotoGestureScreenCoverTransitionEast()	0	static
FrontendApplicationBase.cpp:79:6:void FrontendApplicationBase::gotoSettingsScreenCoverTransitionEast()	0	static
FrontendApplicationBase.cpp:92:6:void FrontendApplicationBase::gotoPlotScreenCoverTransitionEast()	0	static
FrontendApplicationBase.cpp:103:6:void FrontendApplicationBase::gotoPlotScreenNoTransition()	0	static
MVPApplication.hpp:161:16:PresenterType* touchgfx::makeTransition(touchgfx::Screen**, touchgfx::Presenter**, touchgfx::MVPHeap&, touchgfx::Transition**, ModelType*) [with ScreenType = MenuView; PresenterType = MenuPresenter; TransType = touchgfx::NoTransition; ModelType = Model]	40	static
FrontendApplicationBase.cpp:48:6:void FrontendApplicationBase::gotoMenuScreenNoTransitionImpl()	16	static
MVPApplication.hpp:161:16:PresenterType* touchgfx::makeTransition(touchgfx::Screen**, touchgfx::Presenter**, touchgfx::MVPHeap&, touchgfx::Transition**, ModelType*) [with ScreenType = PlotView; PresenterType = PlotPresenter; TransType = touchgfx::NoTransition; ModelType = Model]	40	static
FrontendApplicationBase.cpp:109:6:void FrontendApplicationBase::gotoPlotScreenNoTransitionImpl()	16	static
AbstractPartition.hpp:135:8:T& touchgfx::AbstractPartition::at(uint16_t) [with T = touchgfx::CoverTransition<touchgfx::EAST>]	0	static
CoverTransition.hpp:45:5:touchgfx::CoverTransition<templateDirection>::CoverTransition(uint8_t) [with touchgfx::Direction templateDirection = touchgfx::EAST]	16	static
MVPApplication.hpp:161:16:PresenterType* touchgfx::makeTransition(touchgfx::Screen**, touchgfx::Presenter**, touchgfx::MVPHeap&, touchgfx::Transition**, ModelType*) [with ScreenType = MenuView; PresenterType = MenuPresenter; TransType = touchgfx::CoverTransition<touchgfx::EAST>; ModelType = Model]	32	static
FrontendApplicationBase.cpp:59:6:void FrontendApplicationBase::gotoMenuScreenCoverTransitionEastImpl()	16	static
MVPApplication.hpp:161:16:PresenterType* touchgfx::makeTransition(touchgfx::Screen**, touchgfx::Presenter**, touchgfx::MVPHeap&, touchgfx::Transition**, ModelType*) [with ScreenType = GestureView; PresenterType = GesturePresenter; TransType = touchgfx::CoverTransition<touchgfx::EAST>; ModelType = Model]	32	static
FrontendApplicationBase.cpp:72:6:void FrontendApplicationBase::gotoGestureScreenCoverTransitionEastImpl()	16	static
MVPApplication.hpp:161:16:PresenterType* touchgfx::makeTransition(touchgfx::Screen**, touchgfx::Presenter**, touchgfx::MVPHeap&, touchgfx::Transition**, ModelType*) [with ScreenType = SettingsView; PresenterType = SettingsPresenter; TransType = touchgfx::CoverTransition<touchgfx::EAST>; ModelType = Model]	32	static
FrontendApplicationBase.cpp:85:6:void FrontendApplicationBase::gotoSettingsScreenCoverTransitionEastImpl()	16	static
MVPApplication.hpp:161:16:PresenterType* touchgfx::makeTransition(touchgfx::Screen**, touchgfx::Presenter**, touchgfx::MVPHeap&, touchgfx::Transition**, ModelType*) [with ScreenType = PlotView; PresenterType = PlotPresenter; TransType = touchgfx::CoverTransition<touchgfx::EAST>; ModelType = Model]	32	static
FrontendApplicationBase.cpp:98:6:void FrontendApplicationBase::gotoPlotScreenCoverTransitionEastImpl()	16	static
