ModelListener.hpp:13:18:virtual void ModelListener::update_angXval(float)	0	static
ModelListener.hpp:14:18:virtual void ModelListener::update_angYval(float)	0	static
ModelListener.hpp:15:18:virtual void ModelListener::update_angZval(float)	0	static
GesturePresenter.hpp:28:13:GesturePresenter::~GesturePresenter()	0	static
GesturePresenter.cpp:10:6:virtual void GesturePresenter::activate()	0	static
GesturePresenter.hpp:28:13:virtual GesturePresenter::~GesturePresenter()	8	static
GesturePresenter.hpp:28:13:virtual void* GesturePresenter::_ZThn4_N16GesturePresenterD1Ev()	0	static
GesturePresenter.cpp:4:1:GesturePresenter::GesturePresenter(GestureView&)	8	static
